{
  "type":       "object",
  "properties": {
    "success": { "type": "boolean" },
    "data":    {
      "type": "object",
      "$ref": "file:/comment.json#"
    }
  },
  "required":   ["data", "success"]
}
