{
  "type":       "object",
  "properties": {
    "success": { "type": "boolean" },
    "data":    {
      "type":  "array",
      "items": {
        "$ref": "file:/topic.json#"
      }
    }
  },
  "required":   ["data", "success"]
}
