{
  "id":         "file:/event.json#",
  "type":       "object",
  "required":   [
    "id",
    "title",
    "text",
    "start_time",
    "end_time",
    "online",
    "views_count",
    "participants_count",
    "free",
    "author",
    "participants",
    "created_at"
  ],
  "properties": {
    "id":                 { "type": "integer" },
    "title":              { "type": "string" },
    "text":               { "type": "string" },
    "start_time":         { "type": "string" },
    "end_time":           { "type": "string" },
    "online":             { "type": "boolean" },
    "views_count":        { "type": "integer" },
    "price":              { "type": ["integer", "null"] },
    "participants_count": { "type": "integer" },
    "free":               { "type": "boolean" },
    "created_at":         { "type": "string" },
    "participants":       { "type": "array" },
    "author":             { "type": "object" },
    "city":               { "type": ["string", "null"] },
    "address":            { "type": ["string", "null"] },
    "longitude":          { "type": ["number", "null"], "multipleOf": 1.0 },
    "latitude":           { "type": ["number", "null"], "multipleOf": 1.0 }
  }
}
